work_stanley
…
Looking into the summary as well as the data set itself, NA’s don’t
seem to be represented as any other integers or numerical-type NA’s.

egg_laying %>% 
  miss_var_summary() #check for NA's

## # A tibble: 40 × 3
##    variable         n_miss pct_miss
##    <chr>             <int>    <num>
##  1 environment_date    170   53.5  
##  2 leaf3_length         72   22.6  
##  3 leaf3_width          72   22.6  
##  4 leaf3_area           72   22.6  
##  5 leaf2_length         12    3.77 
##  6 leaf2_width          12    3.77 
##  7 leaf2_area           12    3.77 
##  8 sward_height          2    0.629
##  9 gps                   1    0.314
## 10 bare_ground           1    0.314
## # ℹ 30 more rows
…
